%YAML 1.1
%TAG !u! tag:unity3d.com,2011:
--- !u!74 &7400000
AnimationClip:
  m_ObjectHideFlags: 0
  m_CorrespondingSourceObject: {fileID: 0}
  m_PrefabInstance: {fileID: 0}
  m_PrefabAsset: {fileID: 0}
  m_Name: PlayerGo
  serializedVersion: 6
  m_Legacy: 0
  m_Compressed: 0
  m_UseHighQualityCurve: 1
  m_RotationCurves: []
  m_CompressedRotationCurves: []
  m_EulerCurves: []
  m_PositionCurves: []
  m_ScaleCurves: []
  m_FloatCurves: []
  m_PPtrCurves:
  - curve:
    - time: 0
      value: {fileID: 21300000, guid: 24abc4d7387cb4a4bb997723288a9ddf, type: 3}
    - time: 0.07692308
      value: {fileID: 21300000, guid: 069ffd6fdb08ecc4d9abba7862f161bb, type: 3}
    - time: 0.15384616
      value: {fileID: 21300000, guid: 4f128cce463809241809f8d252231ac5, type: 3}
    - time: 0.23076923
      value: {fileID: 21300000, guid: dc68f82080176be4e9339c23ba8fadfb, type: 3}
    - time: 0.30769232
      value: {fileID: 21300000, guid: 69b1f7d678de6d7428a70e7937040e23, type: 3}
    - time: 0.3846154
      value: {fileID: 21300000, guid: fa9195e1f0ef0054084788d415fb0d38, type: 3}
    - time: 0.46153846
      value: {fileID: 21300000, guid: ffd4f1eca4f129c4e815eb3b1d89afcb, type: 3}
    - time: 0.53846157
      value: {fileID: 21300000, guid: 8024e00e2fa24b148874ae407e89908d, type: 3}
    - time: 0.61538464
      value: {fileID: 21300000, guid: 892d7ed28571f9b4ea33d0018916ba6f, type: 3}
    - time: 0.6923077
      value: {fileID: 21300000, guid: d7ff7052d957b8e46ac8a5a942424391, type: 3}
    - time: 0.7692308
      value: {fileID: 21300000, guid: 8d5b3e22f09a5f04394844f4df865f40, type: 3}
    - time: 0.84615386
      value: {fileID: 21300000, guid: 49ec2480fc98a4f45bffdc114b38076a, type: 3}
    - time: 0.9230769
      value: {fileID: 21300000, guid: a7ff759b7fa13bd48a688f31881c768b, type: 3}
    - time: 1
      value: {fileID: 21300000, guid: 43074b3b6f529964d88adb0fe8e4fed5, type: 3}
    - time: 1.0769231
      value: {fileID: 21300000, guid: a8603327b3ed81540b5cad9e379b1ad2, type: 3}
    - time: 1.1538461
      value: {fileID: 21300000, guid: f4b01f0432b29314fa486b9b609c5ca0, type: 3}
    - time: 1.2307693
      value: {fileID: 21300000, guid: 8800fbfda10fa7243858a658b4a7819a, type: 3}
    - time: 1.3076923
      value: {fileID: 21300000, guid: a1f172d1e6d0dd5428803223def8facb, type: 3}
    - time: 1.3846154
      value: {fileID: 21300000, guid: 1eacb55d35c36be41b966e2a62bf8818, type: 3}
    - time: 1.4615384
      value: {fileID: 21300000, guid: 24abc4d7387cb4a4bb997723288a9ddf, type: 3}
    - time: 1.5384616
      value: {fileID: 21300000, guid: 069ffd6fdb08ecc4d9abba7862f161bb, type: 3}
    - time: 1.6153846
      value: {fileID: 21300000, guid: 4f128cce463809241809f8d252231ac5, type: 3}
    - time: 1.6923077
      value: {fileID: 21300000, guid: dc68f82080176be4e9339c23ba8fadfb, type: 3}
    - time: 1.7692307
      value: {fileID: 21300000, guid: 69b1f7d678de6d7428a70e7937040e23, type: 3}
    - time: 1.8461539
      value: {fileID: 21300000, guid: fa9195e1f0ef0054084788d415fb0d38, type: 3}
    attribute: m_Sprite
    path: 
    classID: 212
    script: {fileID: 0}
  m_SampleRate: 13
  m_WrapMode: 0
  m_Bounds:
    m_Center: {x: 0, y: 0, z: 0}
    m_Extent: {x: 0, y: 0, z: 0}
  m_ClipBindingConstant:
    genericBindings:
    - serializedVersion: 2
      path: 0
      attribute: 0
      script: {fileID: 0}
      typeID: 212
      customType: 23
      isPPtrCurve: 1
    pptrCurveMapping:
    - {fileID: 21300000, guid: 24abc4d7387cb4a4bb997723288a9ddf, type: 3}
    - {fileID: 21300000, guid: 069ffd6fdb08ecc4d9abba7862f161bb, type: 3}
    - {fileID: 21300000, guid: 4f128cce463809241809f8d252231ac5, type: 3}
    - {fileID: 21300000, guid: dc68f82080176be4e9339c23ba8fadfb, type: 3}
    - {fileID: 21300000, guid: 69b1f7d678de6d7428a70e7937040e23, type: 3}
    - {fileID: 21300000, guid: fa9195e1f0ef0054084788d415fb0d38, type: 3}
    - {fileID: 21300000, guid: ffd4f1eca4f129c4e815eb3b1d89afcb, type: 3}
    - {fileID: 21300000, guid: 8024e00e2fa24b148874ae407e89908d, type: 3}
    - {fileID: 21300000, guid: 892d7ed28571f9b4ea33d0018916ba6f, type: 3}
    - {fileID: 21300000, guid: d7ff7052d957b8e46ac8a5a942424391, type: 3}
    - {fileID: 21300000, guid: 8d5b3e22f09a5f04394844f4df865f40, type: 3}
    - {fileID: 21300000, guid: 49ec2480fc98a4f45bffdc114b38076a, type: 3}
    - {fileID: 21300000, guid: a7ff759b7fa13bd48a688f31881c768b, type: 3}
    - {fileID: 21300000, guid: 43074b3b6f529964d88adb0fe8e4fed5, type: 3}
    - {fileID: 21300000, guid: a8603327b3ed81540b5cad9e379b1ad2, type: 3}
    - {fileID: 21300000, guid: f4b01f0432b29314fa486b9b609c5ca0, type: 3}
    - {fileID: 21300000, guid: 8800fbfda10fa7243858a658b4a7819a, type: 3}
    - {fileID: 21300000, guid: a1f172d1e6d0dd5428803223def8facb, type: 3}
    - {fileID: 21300000, guid: 1eacb55d35c36be41b966e2a62bf8818, type: 3}
    - {fileID: 21300000, guid: 24abc4d7387cb4a4bb997723288a9ddf, type: 3}
    - {fileID: 21300000, guid: 069ffd6fdb08ecc4d9abba7862f161bb, type: 3}
    - {fileID: 21300000, guid: 4f128cce463809241809f8d252231ac5, type: 3}
    - {fileID: 21300000, guid: dc68f82080176be4e9339c23ba8fadfb, type: 3}
    - {fileID: 21300000, guid: 69b1f7d678de6d7428a70e7937040e23, type: 3}
    - {fileID: 21300000, guid: fa9195e1f0ef0054084788d415fb0d38, type: 3}
  m_AnimationClipSettings:
    serializedVersion: 2
    m_AdditiveReferencePoseClip: {fileID: 0}
    m_AdditiveReferencePoseTime: 0
    m_StartTime: 0
    m_StopTime: 1.923077
    m_OrientationOffsetY: 0
    m_Level: 0
    m_CycleOffset: 0
    m_HasAdditiveReferencePose: 0
    m_LoopTime: 1
    m_LoopBlend: 0
    m_LoopBlendOrientation: 0
    m_LoopBlendPositionY: 0
    m_LoopBlendPositionXZ: 0
    m_KeepOriginalOrientation: 0
    m_KeepOriginalPositionY: 1
    m_KeepOriginalPositionXZ: 0
    m_HeightFromFeet: 0
    m_Mirror: 0
  m_EditorCurves: []
  m_EulerEditorCurves: []
  m_HasGenericRootTransform: 0
  m_HasMotionFloatCurves: 0
  m_Events: []
